%YAML 1.1
%TAG !u! tag:unity3d.com,2011:
--- !u!114 &11400000
MonoBehaviour:
  m_ObjectHideFlags: 0
  m_CorrespondingSourceObject: {fileID: 0}
  m_PrefabInstance: {fileID: 0}
  m_PrefabAsset: {fileID: 0}
  m_GameObject: {fileID: 0}
  m_Enabled: 1
  m_EditorHideFlags: 0
  m_Script: {fileID: 11500000, guid: 2b39271d060cfc6449eb70ea4cee49f3, type: 3}
  m_Name: Material_Osmium _924
  m_EditorClassIdentifier: 
  Name: Osmium  394
  Description: ' is paramagnetic at room temperature, and becomes an antiferromagnet
    upon cooling to 20 K '
  Asset: {fileID: -7602074284732470380, guid: 006f7f82ca50d224a993a4ca8304ad81, type: 3}
  Price: 16
