%YAML 1.1
%TAG !u! tag:unity3d.com,2011:
--- !u!114 &11400000
MonoBehaviour:
  m_ObjectHideFlags: 0
  m_CorrespondingSourceObject: {fileID: 0}
  m_PrefabInstance: {fileID: 0}
  m_PrefabAsset: {fileID: 0}
  m_GameObject: {fileID: 0}
  m_Enabled: 1
  m_EditorHideFlags: 0
  m_Script: {fileID: 11500000, guid: 6d468d54eebb61c44b1ec124559483ba, type: 3}
  m_Name: Consumable_Aid kit_224
  m_EditorClassIdentifier: 
  Name: Aid kit purple
  Description: Restore 600 hp or may kill you
  Asset: {fileID: -6178934423078880332, guid: 393021b790fe7bd4484e9f84c76ad03e, type: 3}
  Price: 37
