%YAML 1.1
%TAG !u! tag:unity3d.com,2011:
--- !u!114 &11400000
MonoBehaviour:
  m_ObjectHideFlags: 0
  m_CorrespondingSourceObject: {fileID: 0}
  m_PrefabInstance: {fileID: 0}
  m_PrefabAsset: {fileID: 0}
  m_GameObject: {fileID: 0}
  m_Enabled: 1
  m_EditorHideFlags: 0
  m_Script: {fileID: 11500000, guid: a71804a5ca54c7d4bb2e14918b4ba5bd, type: 3}
  m_Name: Weapon_The Noisy Cricket_708
  m_EditorClassIdentifier: 
  Name: The Noisy Cricket
  Description: Those projectiles pack quite a punch. They are purportedly 300 percent
    more effective than normal ammo, and will be able to strike targets as far as
    700 meters (2,300 feet) away.
  Asset: {fileID: 2490920443210793853, guid: 006f7f82ca50d224a993a4ca8304ad81, type: 3}
  Price: 599
  Compilation:
  - {fileID: 11400000, guid: 6c511fa3ff9c55149b19fc41594f922c, type: 2}
  - {fileID: 11400000, guid: 6c511fa3ff9c55149b19fc41594f922c, type: 2}
