%YAML 1.1
%TAG !u! tag:unity3d.com,2011:
--- !u!114 &11400000
MonoBehaviour:
  m_ObjectHideFlags: 0
  m_CorrespondingSourceObject: {fileID: 0}
  m_PrefabInstance: {fileID: 0}
  m_PrefabAsset: {fileID: 0}
  m_GameObject: {fileID: 0}
  m_Enabled: 1
  m_EditorHideFlags: 0
  m_Script: {fileID: 11500000, guid: a71804a5ca54c7d4bb2e14918b4ba5bd, type: 3}
  m_Name: Weapon_Flash Bang Grenade_747
  m_EditorClassIdentifier: 
  Name: Flash Bang Grenade
  Description: is equipped with a laser rangefinder and on-board computer. It packs
    a magazine of four 25mm projectiles,
  Asset: {fileID: 2490920443210793853, guid: 006f7f82ca50d224a993a4ca8304ad81, type: 3}
  Price: 659
  Compilation:
  - {fileID: 11400000, guid: 5acdcceb6e459e74d8ade7f5d0aeaf86, type: 2}
  - {fileID: 11400000, guid: 8301d12676966764ba703f2a66967e1f, type: 2}
