%YAML 1.1
%TAG !u! tag:unity3d.com,2011:
--- !u!114 &11400000
MonoBehaviour:
  m_ObjectHideFlags: 0
  m_CorrespondingSourceObject: {fileID: 0}
  m_PrefabInstance: {fileID: 0}
  m_PrefabAsset: {fileID: 0}
  m_GameObject: {fileID: 0}
  m_Enabled: 1
  m_EditorHideFlags: 0
  m_Script: {fileID: 11500000, guid: f4f5135b140f0164f958e84d27f56794, type: 3}
  m_Name: Quest_Computerized Stapler_858
  m_EditorClassIdentifier: 
  Name: Computerized Stapler
  Description: Quest Item - do not sell, do not touch, do not eat
  Asset: {fileID: 21300000, guid: affd7feccbd37624cb41353366b38e06, type: 3}
  Price: 123
